module gitlab.com/remotejob/flightfactor/flightfactor-grpc-func

go 1.20

require (
	github.com/golang/protobuf v1.5.2
	golang.org/x/net v0.7.0
	google.golang.org/grpc v1.53.0
	google.golang.org/protobuf v1.28.1
)

require (
	golang.org/x/sys v0.5.0 // indirect
	golang.org/x/text v0.7.0 // indirect
	google.golang.org/genproto v0.0.0-20230227214838-9b19f0bdc514 // indirect
)
